| Kuupäev ja kellaaeg | Algus    | Lõpp     | km  |
|---------------------|----------|----------|-----|
| 10/12/2015 20:34:44 | Narva    | Pärnu    | 291 |
| 10/12/2015 20:41:33 | Tartu    | Narva    | 178 |
| 10/12/2015 20:44:18 | Tartu    | Pärnu    | 174 |
| 10/12/2015 20:46:18 | Tartu    | Pärnu    | 174 |
| 10/12/2015 21:28:23 | Tartu    | Narva    | 178 |
| 10/12/2015 21:28:54 | Tartu    | Narva    | 178 |
| 10/12/2015 21:29:51 | Tartu    | Narva    | 178 |
| 10/12/2015 21:38:06 | Tallinn  | Tartu    | 186 |
| 10/12/2015 22:00:04 | Tallinn  | Tartu    | 186 |
| 10/12/2015 22:00:23 | Tallinn  | Narva    | 211 |
| 10/12/2015 22:01:28 | Tallinn  | Tartu    | 186 |
| 10/12/2015 22:01:42 | Tallinn  | Narva    | 211 |
| 10/12/2015 22:01:58 | Tallinn  | Pärnu    | 128 |
| 10/12/2015 22:02:43 | Tallinn  | Tartu    | 186 |
| 10/12/2015 22:02:52 | Tallinn  | Tartu    | 186 |
| 10/12/2015 22:04:03 | Tallinn  | Tartu    | 186 |
| 10/12/2015 22:05:33 | Tallinn  | Tartu    | 186 |
| 10/12/2015 22:06:19 | Tallinn  | Tartu    | 186 |
| 10/12/2015 22:06:33 | Tallinn  | Tartu    | 186 |
| 10/12/2015 22:15:25 | Tallinn  | Tartu    | 186 |
| 10/12/2015 22:15:36 | Tallinn  | Narva    | 211 |
| 10/12/2015 22:42:43 | Tallinn  | Tartu    | 186 |
| 10/12/2015 22:43:06 | Tallinn  | Tartu    | 186 |
| 10/12/2015 22:43:18 | Tallinn  | Tartu    | 186 |
| 10/12/2015 22:43:58 | Tallinn  | Tartu    | 186 |
| 10/12/2015 22:45:51 | Tallinn  | Tartu    | 186 |
| 10/12/2015 22:46:08 | Tallinn  | Tartu    | 186 |
| 10/12/2015 22:46:28 | Tallinn  | Tartu    | 186 |
| 10/12/2015 22:46:42 | Tallinn  | Tartu    | 186 |
| 10/12/2015 22:47:29 | Tallinn  | Tartu    | 186 |
| 10/12/2015 22:47:40 | Tallinn  | Tartu    | 186 |
| 10/12/2015 22:48:33 | Tallinn  | Tartu    | 186 |
| 10/12/2015 22:48:41 | Tallinn  | Tartu    | 186 |
| 10/12/2015 22:49:25 | Tallinn  | Tartu    | 186 |
| 10/12/2015 22:49:39 | Tallinn  | Tartu    | 186 |
| 10/12/2015 22:51:17 | Tallinn  | Tartu    | 186 |
| 10/12/2015 22:51:26 | Tallinn  | Tartu    | 186 |
| 10/12/2015 22:51:35 | Tallinn  | Tartu    | 186 |
| 10/12/2015 22:53:05 | Tallinn  | Tartu    | 186 |
| 10/12/2015 22:55:43 | Tallinn  | Tartu    | 186 |
| 10/12/2015 22:55:58 | Tallinn  | Tartu    | 186 |
| 10/12/2015 22:58:05 | Tallinn  | Tartu    | 186 |
| 10/12/2015 22:58:27 | Tallinn  | Tartu    | 186 |
| 10/12/2015 22:58:35 | Tallinn  | Tartu    | 186 |
| 10/12/2015 23:15:32 | Tallinn  | Tartu    | 186 |
| 10/12/2015 23:15:59 | Tallinn  | Tartu    | 186 |
| 10/12/2015 23:16:08 | Tallinn  | Tartu    | 186 |
| 10/12/2015 23:22:55 | Tallinn  | Tartu    | 186 |
| 10/12/2015 23:23:04 | Tallinn  | Tartu    | 186 |
| 10/12/2015 23:23:13 | Tallinn  | Tartu    | 186 |
| 10/12/2015 23:27:08 | Tallinn  | Tartu    | 186 |
| 10/12/2015 23:27:28 | Tallinn  | Tartu    | 186 |
| 10/12/2015 23:27:37 | Tallinn  | Tartu    | 186 |
| 10/12/2015 23:27:49 | Tallinn  | Tartu    | 186 |
| 10/12/2015 23:36:01 | Tallinn  | Tartu    | 186 |
| 10/12/2015 23:36:11 | Tallinn  | Tartu    | 186 |
| 10/12/2015 23:36:26 | Tallinn  | Tartu    | 186 |
| 10/12/2015 23:37:29 | Tallinn  | Tartu    | 186 |
| 10/12/2015 23:37:36 | Tallinn  | Tartu    | 186 |
| 10/12/2015 23:38:09 | Tallinn  | Tartu    | 186 |
| 10/12/2015 23:38:26 | Tallinn  | Tartu    | 186 |
| 10/12/2015 23:39:04 | Tallinn  | Tartu    | 186 |
| 10/12/2015 23:39:17 | Tallinn  | Tartu    | 186 |
| 10/12/2015 23:39:47 | Tallinn  | Tartu    | 186 |
| 10/12/2015 23:40:07 | Tallinn  | Tartu    | 186 |
| 10/12/2015 23:43:33 | Pärnu    | Haapsalu | 108 |
| 10/12/2015 23:44:03 | Viljandi | Tartu    |  78 |
| 10/12/2015 23:44:23 | Haapsalu | Narva    | 235 |
| 10/12/2015 23:45:07 | Tartu    | Narva    | 178 |
| 10/12/2015 23:45:46 | Tartu    | Viljandi |  78 |
| 10/12/2015 23:47:55 | Tartu    | Pärnu    | 174 |
| 10/12/2015 23:53:23 | Haapsalu | Narva    | 235 |
| 10/12/2015 23:54:14 | Pärnu    | Viljandi |  96 |
| 11/12/2015 00:23:36 | Tartu    | Pärnu    | 174 |

| 11/12/2015 11:45:38 | Tartu    | Narva    | 178 |
| 11/12/2015 12:17:02 | Tallinn  | Haapsalu |  99 |
| 11/12/2015 12:17:19 | Tallinn  | Haapsalu |  99 |
| 11/12/2015 12:17:38 | Tartu    | Narva    | 178 |